…
What values would be expected for new set of areal units?

## Areal Data Visualization

#### Choropleth Tutorial

``` r
#devtools::install_github("UrbanInstitute/urbnmapr")

library(urbnmapr)
```

What are the objects `urbnmapr::states` and `urbnmapr::counties`?

    # A tibble: 83,933 × 9
        long   lat order hole  piece group state_fips state_abbv state_name
       <dbl> <dbl> <int> <lgl> <fct> <fct> <chr>      <chr>      <chr>     
     1 -88.5  31.9     1 FALSE 1     01.1  01         AL         Alabama   
     2 -88.5  31.9     2 FALSE 1     01.1  01         AL         Alabama   
     3 -88.5  31.9     3 FALSE 1     01.1  01         AL         Alabama   
     4 -88.5  32.0     4 FALSE 1     01.1  01         AL         Alabama   
     5 -88.5  32.0     5 FALSE 1     01.1  01         AL         Alabama   
     6 -88.5  32.1     6 FALSE 1     01.1  01         AL         Alabama   
     7 -88.4  32.2     7 FALSE 1     01.1  01         AL         Alabama   
     8 -88.4  32.2     8 FALSE 1     01.1  01         AL         Alabama   
     9 -88.4  32.2     9 FALSE 1     01.1  01         AL         Alabama   
    10 -88.4  32.3    10 FALSE 1     01.1  01         AL         Alabama   
    # ℹ 83,923 more rows

    # A tibble: 208,874 × 12
        long   lat order hole  piece group   county_fips state_abbv state_fips
       <dbl> <dbl> <int> <lgl> <fct> <fct>   <chr>       <chr>      <chr>     
     1 -86.9  32.7     1 FALSE 1     01001.1 01001       AL         01        
     2 -86.8  32.7     2 FALSE 1     01001.1 01001       AL         01        
     3 -86.7  32.7     3 FALSE 1     01001.1 01001       AL         01        
     4 -86.7  32.7     4 FALSE 1     01001.1 01001       AL         01        
     5 -86.4  32.7     5 FALSE 1     01001.1 01001       AL         01        
     6 -86.4  32.4     6 FALSE 1     01001.1 01001       AL         01        
     7 -86.4  32.4     7 FALSE 1     01001.1 01001       AL         01        
     8 -86.5  32.4     8 FALSE 1     01001.1 01001       AL         01        
     9 -86.5  32.4     9 FALSE 1     01001.1 01001       AL         01        
    10 -86.5  32.4    10 FALSE 1     01001.1 01001       AL         01        
    # ℹ 208,864 more rows
    # ℹ 3 more variables: county_name <chr>, fips_class <chr>, state_name <chr>
…
What is `urbnmapr::countydata`? Create a choropleth using this dataset
to visualize median household income both nationally and in Montana.

    # A tibble: 3,142 × 5
        year county_fips  hhpop horate medhhincome
       <int> <chr>        <dbl>  <dbl>       <int>
     1  2015 01001       20237.  0.746       52200
     2  2015 01003       72269   0.733       53600
     3  2015 01005       10287.  0.587       32400
     4  2015 01007        8198.  0.687       26000
     5  2015 01009       21094.  0.832       53000
     6  2015 01011        4104.  0.587       32400
     7  2015 01013        7859.  0.686       37900
     8  2015 01015       44323   0.696       42880
     9  2015 01017       12987.  0.728       37300
    10  2015 01019       10181.  0.713       37800
    # ℹ 3,132 more rows
…
