…
## Now consider some covariates to explain the response

Consider a linear model with county population

``` r
library(usmap)
usmap::countypop
```

    # A tibble: 3,222 × 4
       fips  abbr  county          pop_2022
       <chr> <chr> <chr>              <dbl>
     1 01001 AL    Autauga County     59759
     2 01003 AL    Baldwin County    246435
     3 01005 AL    Barbour County     24706
     4 01007 AL    Bibb County        22005
     5 01009 AL    Blount County      59512
     6 01011 AL    Bullock County     10202
     7 01013 AL    Butler County      18650
     8 01015 AL    Calhoun County    115788
     9 01017 AL    Chambers County    34088
    10 01019 AL    Cherokee County    25302
    # ℹ 3,212 more rows
…
